epoch,acc,loss,lr,val_acc,val_loss
0,0.42981666,1.5412476953824361,0.001,0.58606476,1.1136575070063273
1,0.47095,1.435152378209432,0.001,0.63367826,1.084203982067108
2,0.47998333,1.4150445198059083,0.001,0.62011015,1.106753125890096
3,0.49036667,1.4054491089820862,0.001,0.55252004,1.1760501965840657
4,0.49445,1.3919577357610067,0.001,0.6070594,1.1722991040229798
5,0.4924,1.3902621311505636,0.001,0.55824435,1.1331478093147278
6,0.5154667,1.3519836535453797,0.000100000005,0.60704273,1.0934904753367105
7,0.51981664,1.3466218758265178,0.000100000005,0.5978304,1.103893677743276
8,0.52055,1.3461505406697591,0.000100000005,0.60537386,1.0897605739593506
9,0.52106667,1.3431928364435832,0.000100000005,0.61064756,1.081442660776774
10,0.5236,1.3354841994285584,0.000100000005,0.5974633,1.1125537466049193
11,0.52183336,1.3421935413360595,0.000100000005,0.61645526,1.0881532840410868
12,0.52356666,1.3347042221705119,0.000100000005,0.61256677,1.0876292424201965
13,0.5241,1.3386566203753154,0.000100000005,0.6174733,1.0934556846618653
14,0.5305333,1.325693572839101,1.0000001e-05,0.60749334,1.0989489826202392
15,0.53105,1.3245053884188334,1.0000001e-05,0.60125166,1.1026364237467448
16,0.53501666,1.3214185777028402,1.0000001e-05,0.60620826,1.0958566721280416
17,0.53063333,1.3269369824091592,1.0000001e-05,0.60831106,1.0926134048779805
